ontology; count_triples; runtime; exitcode
ontologies/2019-09-01/2019-09-01.n3; 1,522; 30; 0
ontologies/2013-07-29/2013-07-29.n3; 112; 20; 0
ontologies/2001-05-26/2001-05-26.n3; 289; 9; 1
ontologies/2014-07-22/2014-07-22.n3; 135; 19; 0
ontologies/2008-03-03/2008-03-03.n3; 115; 9; 1
ontologies/2013-06-19/2013-06-19.n3; 44; 17; 0
ontologies/2018-02-14/2018-02-14.n3; 885; 22; 0
ontologies/2007-11-19/2007-11-19.n3; 380; 20; 0
ontologies/2006-10-26/2006-10-26.n3; 213; 9; 1
ontologies/2019-02-04/2019-02-04.n3; 611; 20; 0
ontologies/2010-11-17/2010-11-17.n3; 127; 20; 0
ontologies/2014-02-26/2014-02-26.n3; 865; 17; 0
ontologies/2020-03-10/2020-03-10.n3; 8,861; 13; 1
ontologies/2018-04-06/2018-04-06.n3; 771; 23; 0
ontologies/2014-04-24/2014-04-24.n3; 1,139; 24; 0
ontologies/2013-09-25/2013-09-25.n3; 57; 17; 0
ontologies/2016-07-21/2016-07-21.n3; 91; 19; 0
ontologies/2015-04-02/2015-04-02.n3; 51; 16; 0
ontologies/2008-10-17/2008-10-17.n3; 77; 9; 1
ontologies/2010-07-09/2010-07-09.n3; 179; 20; 0
ontologies/2012-08-25/2012-08-25.n3; 201; 10; 1
ontologies/2013-07-13/2013-07-13.n3; 103,098; 314; 0
ontologies/2015-04-09/2015-04-09.n3; 508; 39; 0
ontologies/2012-04-24/2012-04-24.n3; 735; 21; 0
ontologies/2010-10-20/2010-10-20.n3; 69; 20; 0
ontologies/2008-11-13/2008-11-13.n3; 114; 20; 0
ontologies/2013-11-28/2013-11-28.n3; 549; 21; 0
ontologies/2007-03-22/2007-03-22.n3; 508; 10; 1
ontologies/2010-10-11/2010-10-11.n3; 4,971; 34; 0
ontologies/2013-06-27/2013-06-27.n3; 479; 18; 1
ontologies/2012-11-04/2012-11-04.n3; 711; 22; 0
ontologies/2007-09-17/2007-09-17.n3; 112; 19; 0
ontologies/2014-01-09/2014-01-09.n3; 125; 18; 0
ontologies/2014-05-23/2014-05-23.n3; 468; 19; 0
ontologies/2013-08-07/2013-08-07.n3; 6,130; 12; 1
ontologies/2011-02-23/2011-02-23.n3; 205; 7; 1
ontologies/2013-12-16/2013-12-16.n3; 487; 21; 0
ontologies/2013-09-24/2013-09-24.n3; 349; 21; 0
ontologies/2011-06-28/2011-06-28.n3; 245; 20; 0
ontologies/2010-02-20/2010-02-20.n3; 632; 21; 0
ontologies/2012-08-28/2012-08-28.n3; 726; 20; 0
ontologies/2009-10-07/2009-10-07.n3; 253; 20; 0
ontologies/2012-02-29/2012-02-29.n3; 3,948; 26; 0
ontologies/2004-10-20/2004-10-20.n3; 2,306; 24; 0
ontologies/2015-03-19/2015-03-19.n3; 153; 20; 0
ontologies/2017-03-31/2017-03-31.n3; 590; 21; 0
ontologies/2016-02-01/2016-02-01.n3; 270; 21; 0
ontologies/2020-08-18/2020-08-18.n3; 4,519; 33; 0
ontologies/2015-10-01/2015-10-01.n3; 3,892; 32; 0
ontologies/2012-08-20/2012-08-20.n3; 1,933; 31; 0
ontologies/2017-05-08/2017-05-08.n3; 223; 13; 1
ontologies/2014-04-22/2014-04-22.n3; 726; 23; 0
ontologies/2020-06-05/2020-06-05.n3; 2,621; 30; 0
ontologies/2011-10-06/2011-10-06.n3; 188; 20; 0
ontologies/2015-08-13/2015-08-13.n3; 35; 19; 0
ontologies/2011-06-01/2011-06-01.n3; 1,163; 28; 0
ontologies/2006-10-30/2006-10-30.n3; 2,732; 20; 0
ontologies/2015-04-15/2015-04-15.n3; 807; 25; 0
ontologies/2012-11-17/2012-11-17.n3; 167; 20; 0
ontologies/2007-06-22/2007-06-22.n3; 1,168; 25; 0
ontologies/2009-08-18/2009-08-18.n3; 60; 18; 0
ontologies/2004-02-23/2004-02-23.n3; 156; 19; 0
ontologies/2017-08-23/2017-08-23.n3; 223; 20; 0
ontologies/2014-03-24/2014-03-24.n3; 212; 20; 0
ontologies/2005-07-25/2005-07-25.n3; 1,162; 13; 1
ontologies/2015-03-05/2015-03-05.n3; 398; 20; 0
ontologies/2017-11-27/2017-11-27.n3; 1,013; 21; 0
ontologies/2020-07-16/2020-07-16.n3; 108; 20; 0
ontologies/2012-05-17/2012-05-17.n3; 883; 22; 0
ontologies/2013-05-15/2013-05-15.n3; 321; 19; 0
ontologies/2008-01-14/2008-01-14.n3; 857; 10; 1
ontologies/2007-01-01/2007-01-01.n3; 223; 20; 0
ontologies/2013-07-31/2013-07-31.n3; 167; 19; 0
ontologies/2011-06-22/2011-06-22.n3; 144; 19; 0
ontologies/2019-07-11/2019-07-11.n3; 601; 20; 0
ontologies/2018-11-28/2018-11-28.n3; 140; 19; 0
ontologies/2010-10-22/2010-10-22.n3; 134; 19; 0
ontologies/2011-03-27/2011-03-27.n3; 53; 18; 0
ontologies/2011-11-18/2011-11-18.n3; 495; 20; 0
ontologies/2014-05-20/2014-05-20.n3; 290; 20; 0
ontologies/2016-03-16/2016-03-16.n3; 86; 19; 0
ontologies/2017-05-29/2017-05-29.n3; 2,073; 32; 0
ontologies/2014-05-12/2014-05-12.n3; 138; 20; 0
ontologies/2011-06-27/2011-06-27.n3; 2,071; 29; 0
ontologies/2018-10-31/2018-10-31.n3; 56; 17; 0
ontologies/2015-10-04/2015-10-04.n3; 1,039; 22; 0
ontologies/2015-11-17/2015-11-17.n3; 320; 22; 0
ontologies/2013-06-26/2013-06-26.n3; 83; 10; 1
ontologies/2012-05-15/2012-05-15.n3; 109; 20; 0
ontologies/2010-07-30/2010-07-30.n3; 396; 20; 0
ontologies/2012-10-08/2012-10-08.n3; 42; 19; 0
ontologies/2014-06-18/2014-06-18.n3; 422; 21; 0
ontologies/2012-05-22/2012-05-22.n3; 52; 19; 0
ontologies/2014-08-22/2014-08-22.n3; 360; 21; 0
ontologies/2014-04-10/2014-04-10.n3; 129; 21; 0
ontologies/2015-11-05/2015-11-05.n3; 9,302; 14; 1
ontologies/2017-08-04/2017-08-04.n3; 4,953; 24; 0
ontologies/2015-12-11/2015-12-11.n3; 36,381; 105; 0
ontologies/2012-10-11/2012-10-11.n3; 231; 18; 0
ontologies/2011-11-21/2011-11-21.n3; 87; 19; 0
ontologies/2020-07-12/2020-07-12.n3; 1,892; 29; 0
ontologies/2010-02-19/2010-02-19.n3; 305; 18; 0
ontologies/2008-06-23/2008-06-23.n3; 375; 21; 0
ontologies/2013-08-28/2013-08-28.n3; 383; 10; 1
ontologies/2011-01-27/2011-01-27.n3; 86; 18; 0
ontologies/2014-09-02/2014-09-02.n3; 2,238; 26; 0
ontologies/2012-05-21/2012-05-21.n3; 1,546; 8; 1
ontologies/2012-01-04/2012-01-04.n3; 696; 21; 0
ontologies/2014-01-31/2014-01-31.n3; 1,086; 25; 0
ontologies/2012-06-08/2012-06-08.n3; 180; 7; 1
ontologies/2014-12-10/2014-12-10.n3; 1,715; 25; 0
ontologies/2016-07-12/2016-07-12.n3; 312; 19; 0
ontologies/2013-10-24/2013-10-24.n3; 365; 20; 0
ontologies/2008-07-15/2008-07-15.n3; 56; 18; 0
ontologies/2013-03-18/2013-03-18.n3; 359; 22; 0
ontologies/2018-05-23/2018-05-23.n3; 104; 19; 0
ontologies/2011-01-18/2011-01-18.n3; 23,780; 29; 0
ontologies/2019-01-09/2019-01-09.n3; 2,221; 29; 0
ontologies/2012-06-04/2012-06-04.n3; 95; 20; 0
ontologies/2013-05-18/2013-05-18.n3; 2,225; 11; 1
ontologies/2013-05-03/2013-05-03.n3; 621; 23; 0
ontologies/2009-05-16/2009-05-16.n3; 1,563; 23; 0
ontologies/2010-10-26/2010-10-26.n3; 1,256; 7; 1
ontologies/2008-05-25/2008-05-25.n3; 1,782; 26; 0
ontologies/2018-09-30/2018-09-30.n3; 17,730; 37; 0
ontologies/2015-03-11/2015-03-11.n3; 1,947; 11; 1
ontologies/2021-05-27/2021-05-27.n3; 516; 22; 0
ontologies/2010-06-21/2010-06-21.n3; 748; 10; 1
ontologies/2013-11-19/2013-11-19.n3; 6,565; 13; 1
ontologies/2007-03-23/2007-03-23.n3; 303; 10; 1
ontologies/2008-01-15/2008-01-15.n3; 90; 19; 0
ontologies/2003-08-19/2003-08-19.n3; 891; 22; 0
ontologies/2014-02-16/2014-02-16.n3; 3,741; 12; 1
ontologies/2012-11-28/2012-11-28.n3; 735; 21; 0
ontologies/2019-02-20/2019-02-20.n3; 212; 19; 0
ontologies/2010-07-21/2010-07-21.n3; 449; 20; 0
ontologies/2008-09-08/2008-09-08.n3; 217; 17; 0
ontologies/2014-02-03/2014-02-03.n3; 2,203; 30; 0
ontologies/2015-07-23/2015-07-23.n3; 1,652; 23; 0
ontologies/2006-10-25/2006-10-25.n3; 2,728; 21; 0
ontologies/2014-05-05/2014-05-05.n3; 64; 19; 0
ontologies/2015-01-18/2015-01-18.n3; 1,247; 22; 0
ontologies/2014-02-25/2014-02-25.n3; 87; 18; 0
ontologies/2014-07-31/2014-07-31.n3; 607; 21; 0
ontologies/2013-05-17/2013-05-17.n3; 41; 18; 0
ontologies/2020-12-02/2020-12-02.n3; 488; 21; 0
ontologies/2012-06-18/2012-06-18.n3; 156; 18; 0
ontologies/2012-10-19/2012-10-19.n3; 650; 22; 0
ontologies/2010-09-01/2010-09-01.n3; 158; 18; 0
ontologies/2014-06-05/2014-06-05.n3; 1,676; 26; 0
ontologies/2004-04-07/2004-04-07.n3; 1,227; 11; 1
ontologies/2011-03-17/2011-03-17.n3; 578; 10; 1
ontologies/2012-07-16/2012-07-16.n3; 297; 20; 0
ontologies/2014-09-10/2014-09-10.n3; 640; 20; 0
ontologies/2011-12-01/2011-12-01.n3; 920; 10; 1
ontologies/2006-10-19/2006-10-19.n3; 2,718; 21; 0
ontologies/2014-03-23/2014-03-23.n3; 4,547; 33; 0
ontologies/2012-10-22/2012-10-22.n3; 116; 20; 0
ontologies/2003-08-18/2003-08-18.n3; 3,101; 32; 0
ontologies/2008-01-28/2008-01-28.n3; 171; 21; 0
ontologies/2019-05-27/2019-05-27.n3; 874; 22; 0
ontologies/2008-05-13/2008-05-13.n3; 244; 7; 1
ontologies/2012-09-27/2012-09-27.n3; 1,933; 30; 0
ontologies/2019-09-07/2019-09-07.n3; 2,503; 34; 0
ontologies/2009-11-11/2009-11-11.n3; 7; 7; 1
ontologies/2013-05-01/2013-05-01.n3; 386; 7; 1
ontologies/2015-11-02/2015-11-02.n3; 7,929; 19; 0
ontologies/2015-02-26/2015-02-26.n3; 192; 18; 0
ontologies/2014-03-10/2014-03-10.n3; 753; 24; 0
ontologies/2019-07-16/2019-07-16.n3; 1,306; 26; 0
ontologies/2009-01-24/2009-01-24.n3; 521; 22; 0
ontologies/2010-07-23/2010-07-23.n3; 101; 19; 0
ontologies/2015-04-30/2015-04-30.n3; 736; 21; 0
ontologies/2010-09-14/2010-09-14.n3; 91; 19; 0
ontologies/2019-10-15/2019-10-15.n3; 8,824; 13; 1
ontologies/2014-01-29/2014-01-29.n3; 227; 20; 0
ontologies/2013-11-05/2013-11-05.n3; 372; 20; 0
ontologies/2013-01-08/2013-01-08.n3; 101; 19; 0
ontologies/2014-07-19/2014-07-19.n3; 276; 19; 0
ontologies/2019-12-12/2019-12-12.n3; 5,586; 8; 1
ontologies/2011-03-30/2011-03-30.n3; 2,167; 25; 1
ontologies/2015-08-11/2015-08-11.n3; 129; 21; 0
ontologies/2005-10-25/2005-10-25.n3; 142; 10; 1
ontologies/2012-08-13/2012-08-13.n3; 342; 19; 0
ontologies/2018-05-02/2018-05-02.n3; 2,098; 32; 0
ontologies/2015-05-17/2015-05-17.n3; 208; 19; 0
ontologies/2013-02-15/2013-02-15.n3; 487; 21; 0
ontologies/2005-05-19/2005-05-19.n3; 474; 19; 0
ontologies/2010-10-08/2010-10-08.n3; 410; 20; 0
ontologies/2020-06-01/2020-06-01.n3; 189; 19; 0
ontologies/2015-02-11/2015-02-11.n3; 259; 20; 0
ontologies/2014-10-14/2014-10-14.n3; 139; 20; 0
ontologies/2008-07-09/2008-07-09.n3; 78; 19; 0
ontologies/2013-02-03/2013-02-03.n3; 2,224; 11; 1
ontologies/2010-06-06/2010-06-06.n3; 310; 20; 0
ontologies/2012-09-25/2012-09-25.n3; 42; 19; 0
ontologies/2013-12-21/2013-12-21.n3; 103; 19; 0
ontologies/2009-11-30/2009-11-30.n3; 258; 10; 1
ontologies/2014-08-01/2014-08-01.n3; 59; 19; 0
ontologies/2015-10-28/2015-10-28.n3; 845; 23; 0
ontologies/2013-07-16/2013-07-16.n3; 846; 7; 1
ontologies/2012-08-30/2012-08-30.n3; 3,952; 11; 1
ontologies/2010-03-10/2010-03-10.n3; 51; 10; 1
ontologies/2009-12-15/2009-12-15.n3; 591; 21; 0
ontologies/2014-06-26/2014-06-26.n3; 1,262; 23; 0
ontologies/2018-05-15/2018-05-15.n3; 4,462; 34; 0
ontologies/2014-12-11/2014-12-11.n3; 8,303; 13; 1
ontologies/2017-01-03/2017-01-03.n3; 2,714; 31; 0
ontologies/2013-09-03/2013-09-03.n3; 356; 20; 0
ontologies/2007-11-08/2007-11-08.n3; 177; 19; 0
ontologies/2019-06-01/2019-06-01.n3; 565; 20; 0
ontologies/2015-01-13/2015-01-13.n3; 4,207; 34; 0
ontologies/2014-08-13/2014-08-13.n3; 203; 19; 0
ontologies/2014-08-19/2014-08-19.n3; 2,266; 25; 0
ontologies/2013-09-02/2013-09-02.n3; 1,764; 26; 0
ontologies/2010-11-16/2010-11-16.n3; 280; 18; 0
ontologies/2015-08-05/2015-08-05.n3; 228; 47; 0
ontologies/2015-03-02/2015-03-02.n3; 541; 23; 0
ontologies/2020-05-31/2020-05-31.n3; 71; 17; 0
ontologies/2012-07-22/2012-07-22.n3; 1,556; 26; 0
ontologies/2013-04-15/2013-04-15.n3; 55; 19; 0
ontologies/2012-02-05/2012-02-05.n3; 138; 18; 0
ontologies/2011-05-08/2011-05-08.n3; 344; 20; 0
ontologies/2016-04-15/2016-04-15.n3; 55; 19; 0
ontologies/2012-10-18/2012-10-18.n3; 412; 20; 0
ontologies/2012-06-27/2012-06-27.n3; 182; 8; 1
ontologies/2016-04-19/2016-04-19.n3; 2,070; 30; 0
ontologies/2020-02-11/2020-02-11.n3; 1,054; 19; 0
ontologies/2013-07-26/2013-07-26.n3; 266; 21; 0
ontologies/2012-03-19/2012-03-19.n3; 472; 8; 1
ontologies/2013-07-22/2013-07-22.n3; 2,139; 27; 0
ontologies/2009-03-02/2009-03-02.n3; 790; 23; 0
ontologies/2021-02-25/2021-02-25.n3; 658; 21; 0
ontologies/2003-07-28/2003-07-28.n3; 56; 17; 0
ontologies/2013-04-23/2013-04-23.n3; 519; 20; 0
ontologies/2016-05-25/2016-05-25.n3; 82; 24; 0
ontologies/2007-11-07/2007-11-07.n3; 43; 9; 1
ontologies/2016-07-05/2016-07-05.n3; 159; 20; 0
ontologies/2009-11-13/2009-11-13.n3; 341; 22; 0
ontologies/2013-11-13/2013-11-13.n3; 179; 19; 0
ontologies/2010-10-02/2010-10-02.n3; 693; 22; 0
ontologies/2014-05-30/2014-05-30.n3; 841; 21; 0
ontologies/2010-03-26/2010-03-26.n3; 987; 23; 0
ontologies/2010-06-30/2010-06-30.n3; 326; 10; 1
ontologies/2020-04-02/2020-04-02.n3; 105; 18; 0
ontologies/2009-04-20/2009-04-20.n3; 81; 10; 1
ontologies/2012-07-13/2012-07-13.n3; 1,807; 25; 0
ontologies/2011-03-06/2011-03-06.n3; 216; 20; 0
ontologies/2005-10-23/2005-10-23.n3; 608; 20; 0
ontologies/2015-06-18/2015-06-18.n3; 244; 8; 1
ontologies/2016-01-01/2016-01-01.n3; 509; 22; 0
ontologies/2014-02-20/2014-02-20.n3; 480; 20; 0
ontologies/2005-09-09/2005-09-09.n3; 543; 10; 1
ontologies/2009-11-15/2009-11-15.n3; 450; 20; 0
ontologies/2014-04-01/2014-04-01.n3; 54; 18; 0
ontologies/2013-06-07/2013-06-07.n3; 1,426; 20; 1
ontologies/2011-11-05/2011-11-05.n3; 141; 19; 0
ontologies/2011-02-10/2011-02-10.n3; 3,082; 25; 0
ontologies/2016-01-10/2016-01-10.n3; 346; 19; 0
ontologies/2012-08-09/2012-08-09.n3; 84; 19; 0
ontologies/2020-05-01/2020-05-01.n3; 827; 23; 0
ontologies/2009-02-20/2009-02-20.n3; 631; 22; 0
ontologies/2015-08-06/2015-08-06.n3; 9,144; 14; 1
ontologies/2012-04-30/2012-04-30.n3; 518; 20; 0
ontologies/2011-10-09/2011-10-09.n3; 1,040; 26; 0
ontologies/2012-10-26/2012-10-26.n3; 835; 12; 1
ontologies/2013-10-18/2013-10-18.n3; 380; 20; 0
ontologies/2006-05-03/2006-05-03.n3; 186; 20; 0
ontologies/2014-01-10/2014-01-10.n3; 442; 20; 0
ontologies/2012-12-07/2012-12-07.n3; 22; 19; 0
ontologies/2014-07-28/2014-07-28.n3; 603; 20; 0
ontologies/2016-03-23/2016-03-23.n3; 661; 21; 0
ontologies/2003-12-15/2003-12-15.n3; 1,530; 23; 0
ontologies/2010-11-15/2010-11-15.n3; 2,963; 24; 0
ontologies/2009-05-18/2009-05-18.n3; 218; 19; 0
ontologies/2010-04-19/2010-04-19.n3; 526; 19; 0
ontologies/2014-12-09/2014-12-09.n3; 723; 22; 0
ontologies/2015-01-24/2015-01-24.n3; 280; 19; 0
ontologies/2017-01-31/2017-01-31.n3; 256; 20; 0
ontologies/2019-02-01/2019-02-01.n3; 163; 19; 0
ontologies/2009-02-27/2009-02-27.n3; 779; 24; 0
ontologies/2006-10-23/2006-10-23.n3; 2,728; 21; 0
ontologies/2012-09-07/2012-09-07.n3; 232; 20; 0
ontologies/2012-04-18/2012-04-18.n3; 296; 20; 0
ontologies/2014-07-02/2014-07-02.n3; 78; 19; 0
ontologies/2009-11-28/2009-11-28.n3; 422; 21; 0
ontologies/2007-10-02/2007-10-02.n3; 571; 20; 0
ontologies/2015-12-05/2015-12-05.n3; 1,695; 24; 0
ontologies/2016-06-28/2016-06-28.n3; 37; 17; 0
ontologies/2018-04-20/2018-04-20.n3; 42,828; 50; 1
ontologies/2013-03-26/2013-03-26.n3; 738; 22; 0
ontologies/2012-05-31/2012-05-31.n3; 938; 22; 0
ontologies/2018-02-09/2018-02-09.n3; 2,375; 44; 0
ontologies/2014-03-27/2014-03-27.n3; 106; 22; 0
ontologies/2006-01-15/2006-01-15.n3; 1,738; 25; 0
ontologies/2012-04-20/2012-04-20.n3; 56; 19; 0
ontologies/2010-09-26/2010-09-26.n3; 56; 18; 0
ontologies/2015-06-26/2015-06-26.n3; 278; 20; 0
ontologies/2015-09-13/2015-09-13.n3; 41; 17; 0
ontologies/2003-03-31/2003-03-31.n3; 3,151; 26; 0
ontologies/2013-04-05/2013-04-05.n3; 5,442; 12; 1
ontologies/2017-03-18/2017-03-18.n3; 4,054; 8; 1
ontologies/2013-11-26/2013-11-26.n3; 112; 19; 0
ontologies/2015-10-02/2015-10-02.n3; 728; 21; 0
ontologies/2012-06-01/2012-06-01.n3; 853; 22; 0
ontologies/2010-04-01/2010-04-01.n3; 139; 19; 0
ontologies/2009-03-18/2009-03-18.n3; 806; 21; 0
ontologies/2020-06-04/2020-06-04.n3; 1,167; 23; 0
ontologies/2015-07-05/2015-07-05.n3; 11,422; 29; 0
ontologies/2011-02-19/2011-02-19.n3; 64; 17; 0
ontologies/2012-07-14/2012-07-14.n3; 1,900; 31; 0
ontologies/2009-07-28/2009-07-28.n3; 126; 19; 0
ontologies/2013-05-24/2013-05-24.n3; 192; 20; 0
ontologies/2019-11-01/2019-11-01.n3; 8,861; 13; 1
ontologies/2011-08-01/2011-08-01.n3; 136; 10; 1
ontologies/2020-12-01/2020-12-01.n3; 427; 21; 0
ontologies/2012-09-26/2012-09-26.n3; 699; 22; 0
ontologies/2013-11-06/2013-11-06.n3; 502; 23; 0
ontologies/2017-01-17/2017-01-17.n3; 1,174; 22; 0
ontologies/2007-08-23/2007-08-23.n3; 167; 19; 1
ontologies/2014-07-03/2014-07-03.n3; 11,909; 47; 1
ontologies/2012-09-01/2012-09-01.n3; 331; 22; 0
ontologies/2006-06-17/2006-06-17.n3; 489; 18; 0
ontologies/2007-05-01/2007-05-01.n3; 287; 20; 0
ontologies/2012-04-25/2012-04-25.n3; 877; 21; 0
ontologies/2008-10-06/2008-10-06.n3; 277; 17; 0
ontologies/2015-04-08/2015-04-08.n3; 334; 22; 0
ontologies/2011-11-22/2011-11-22.n3; 321; 20; 0
ontologies/2013-04-30/2013-04-30.n3; 1,928; 23; 0
ontologies/2012-12-21/2012-12-21.n3; 3,089; 26; 0
ontologies/2009-01-01/2009-01-01.n3; 2,941; 39; 0
ontologies/2020-02-14/2020-02-14.n3; 426; 21; 0
ontologies/2018-03-29/2018-03-29.n3; 7,112; 34; 0
ontologies/2012-09-11/2012-09-11.n3; 104; 19; 0
ontologies/2014-07-08/2014-07-08.n3; 7,589; 13; 1
ontologies/2015-11-03/2015-11-03.n3; 279; 21; 0
ontologies/2015-09-30/2015-09-30.n3; 69; 19; 0
ontologies/2020-06-03/2020-06-03.n3; 525; 23; 0
ontologies/2013-11-16/2013-11-16.n3; 121; 18; 0
ontologies/2015-07-11/2015-07-11.n3; 220; 20; 0
ontologies/2014-08-11/2014-08-11.n3; 861; 22; 0
ontologies/2013-12-04/2013-12-04.n3; 19,810; 79; 0
ontologies/2013-09-13/2013-09-13.n3; 523; 20; 0
ontologies/2012-07-23/2012-07-23.n3; 1,931; 29; 0
ontologies/2010-04-28/2010-04-28.n3; 29; 10; 1
ontologies/2014-03-12/2014-03-12.n3; 101; 19; 0
ontologies/2014-06-14/2014-06-14.n3; 14,200; 76; 0
ontologies/2014-07-26/2014-07-26.n3; 12,005; 27; 1
ontologies/2013-11-30/2013-11-30.n3; 118; 20; 0
ontologies/2015-04-13/2015-04-13.n3; 56,441; 219; 0
ontologies/2011-06-12/2011-06-12.n3; 2,298; 24; 0
ontologies/2010-10-07/2010-10-07.n3; 118; 18; 0
ontologies/2019-10-23/2019-10-23.n3; 1,542; 23; 0
ontologies/2014-05-31/2014-05-31.n3; 554; 10; 1
ontologies/2013-12-17/2013-12-17.n3; 8,915; 47; 0
ontologies/2006-06-30/2006-06-30.n3; 147; 19; 0
ontologies/2012-03-09/2012-03-09.n3; 4,776; 12; 1
ontologies/2012-07-20/2012-07-20.n3; 58; 19; 0
ontologies/2015-06-19/2015-06-19.n3; 1,668; 27; 0
ontologies/2013-12-05/2013-12-05.n3; 61; 19; 0
ontologies/2010-11-28/2010-11-28.n3; 2,092; 26; 0
ontologies/2014-07-30/2014-07-30.n3; 3,094; 12; 1
ontologies/2012-12-30/2012-12-30.n3; 232; 20; 0
ontologies/2010-08-12/2010-08-12.n3; 302; 20; 0
ontologies/2012-04-27/2012-04-27.n3; 193; 19; 0
ontologies/2014-04-03/2014-04-03.n3; 118; 21; 0
ontologies/2014-06-28/2014-06-28.n3; 445; 20; 0
ontologies/2012-10-03/2012-10-03.n3; 296; 10; 1
ontologies/2017-04-17/2017-04-17.n3; 520; 20; 0
ontologies/2012-11-09/2012-11-09.n3; 109; 19; 0
ontologies/2012-03-17/2012-03-17.n3; 278; 20; 0
ontologies/2017-09-01/2017-09-01.n3; 51; 16; 1
ontologies/2015-06-22/2015-06-22.n3; 108; 19; 0
ontologies/2014-05-28/2014-05-28.n3; 14,200; 77; 0
ontologies/2012-10-21/2012-10-21.n3; 282; 20; 0
ontologies/2013-05-30/2013-05-30.n3; 43; 17; 0
ontologies/2015-05-19/2015-05-19.n3; 3,891; 34; 0
ontologies/2013-09-20/2013-09-20.n3; 372; 20; 0
ontologies/2013-12-15/2013-12-15.n3; 128; 19; 0
ontologies/2009-09-25/2009-09-25.n3; 306; 20; 0
ontologies/2015-01-11/2015-01-11.n3; 1,662; 22; 0
ontologies/2011-12-09/2011-12-09.n3; 336; 17; 1
ontologies/2015-02-20/2015-02-20.n3; 279; 20; 0
ontologies/2014-01-11/2014-01-11.n3; 17,851; 78; 0
ontologies/2003-08-11/2003-08-11.n3; 17; 10; 1
ontologies/2009-04-06/2009-04-06.n3; 169; 21; 0
ontologies/2015-12-14/2015-12-14.n3; 712; 22; 0
ontologies/2015-03-30/2015-03-30.n3; 946; 22; 0
ontologies/2016-04-25/2016-04-25.n3; 2,074; 34; 0
ontologies/2007-05-24/2007-05-24.n3; 561; 21; 0
ontologies/2010-04-04/2010-04-04.n3; 419; 22; 0
ontologies/2010-03-01/2010-03-01.n3; 82; 17; 0
ontologies/2016-05-21/2016-05-21.n3; 30,793; 116; 0
ontologies/2014-12-22/2014-12-22.n3; 232; 21; 0
ontologies/2017-07-29/2017-07-29.n3; 2,254; 33; 0
ontologies/2009-03-09/2009-03-09.n3; 237; 20; 0
ontologies/2005-04-03/2005-04-03.n3; 466; 18; 0
ontologies/2021-02-12/2021-02-12.n3; 7,511; 42; 0
ontologies/2013-10-15/2013-10-15.n3; 178; 20; 0
ontologies/2012-10-09/2012-10-09.n3; 187; 19; 0
ontologies/2014-04-04/2014-04-04.n3; 7,315; 13; 1
ontologies/2007-02-25/2007-02-25.n3; 154; 19; 0
ontologies/2010-04-20/2010-04-20.n3; 1,012; 22; 0
ontologies/2011-03-20/2011-03-20.n3; 115; 19; 0
ontologies/2009-09-30/2009-09-30.n3; 1,782; 25; 0
ontologies/2016-10-13/2016-10-13.n3; 3,096; 20; 1
ontologies/2012-07-24/2012-07-24.n3; 1,339; 23; 0
ontologies/2017-08-06/2017-08-06.n3; 4,978; 23; 0
ontologies/2017-04-28/2017-04-28.n3; 243; 24; 0
ontologies/2015-04-04/2015-04-04.n3; 67; 19; 0
ontologies/2020-03-22/2020-03-22.n3; 603; 11; 1
ontologies/2019-11-07/2019-11-07.n3; 530; 22; 0
ontologies/2003-10-14/2003-10-14.n3; 223; 17; 0
ontologies/2013-02-23/2013-02-23.n3; 122; 19; 0
ontologies/2012-07-25/2012-07-25.n3; 1,925; 30; 0
ontologies/2020-01-01/2020-01-01.n3; 525; 21; 0
ontologies/2009-09-28/2009-09-28.n3; 65; 17; 0
ontologies/2009-06-28/2009-06-28.n3; 34; 18; 0
ontologies/2013-01-17/2013-01-17.n3; 232; 20; 0
ontologies/2012-01-29/2012-01-29.n3; 542; 21; 0
ontologies/2012-10-29/2012-10-29.n3; 6,919; 23; 0
ontologies/2020-05-21/2020-05-21.n3; 2,607; 30; 0
ontologies/2010-04-06/2010-04-06.n3; 107; 17; 0
ontologies/2015-11-23/2015-11-23.n3; 1,673; 25; 0
ontologies/2010-07-22/2010-07-22.n3; 79; 10; 1
ontologies/2010-10-12/2010-10-12.n3; 87; 18; 0
ontologies/2013-07-24/2013-07-24.n3; 5,447; 12; 1
ontologies/2016-05-10/2016-05-10.n3; 207; 23; 0
ontologies/2010-07-11/2010-07-11.n3; 152; 19; 0
ontologies/2013-05-11/2013-05-11.n3; 738; 7; 1
ontologies/2012-12-17/2012-12-17.n3; 3,297; 12; 1
ontologies/2008-11-29/2008-11-29.n3; 1,489; 24; 0
ontologies/2011-11-30/2011-11-30.n3; 743; 24; 0
ontologies/2016-06-03/2016-06-03.n3; 344; 19; 0
ontologies/2012-09-20/2012-09-20.n3; 1,644; 30; 0
ontologies/2004-12-31/2004-12-31.n3; 13; 10; 1
ontologies/2008-02-28/2008-02-28.n3; 391; 20; 0
ontologies/2014-01-15/2014-01-15.n3; 3,692; 33; 0
ontologies/2011-05-11/2011-05-11.n3; 33; 16; 0
ontologies/2009-11-01/2009-11-01.n3; 61; 18; 0
ontologies/2013-08-14/2013-08-14.n3; 24,758; 15; 1
ontologies/2013-12-20/2013-12-20.n3; 576; 22; 0
ontologies/2012-05-10/2012-05-10.n3; 743; 22; 0
ontologies/2011-06-29/2011-06-29.n3; 338; 20; 0
ontologies/2012-03-01/2012-03-01.n3; 187; 19; 0
ontologies/2009-05-19/2009-05-19.n3; 80; 18; 0
ontologies/2012-11-08/2012-11-08.n3; 5,193; 12; 1
ontologies/2012-05-14/2012-05-14.n3; 2,144; 28; 0
ontologies/2013-03-20/2013-03-20.n3; 390; 21; 0
ontologies/2012-01-05/2012-01-05.n3; 165; 10; 1
ontologies/2016-09-13/2016-09-13.n3; 114; 19; 0
ontologies/2008-06-03/2008-06-03.n3; 190; 20; 0
ontologies/2016-04-21/2016-04-21.n3; 2,223; 28; 0
ontologies/2018-09-06/2018-09-06.n3; 815; 21; 0
ontologies/2015-04-11/2015-04-11.n3; 2,751; 30; 0
ontologies/2014-03-20/2014-03-20.n3; 749; 22; 0
ontologies/2019-03-22/2019-03-22.n3; 560; 22; 0
ontologies/2007-03-09/2007-03-09.n3; 46; 9; 1
ontologies/2010-10-05/2010-10-05.n3; 2,923; 22; 0
ontologies/2007-01-14/2007-01-14.n3; 561; 20; 0
ontologies/2012-04-12/2012-04-12.n3; 165; 7; 1
ontologies/2013-06-14/2013-06-14.n3; 336; 20; 0
ontologies/2017-10-27/2017-10-27.n3; 293; 21; 0
ontologies/2014-10-12/2014-10-12.n3; 8,310; 8; 1
ontologies/2018-01-24/2018-01-24.n3; 150; 17; 0
ontologies/2015-12-31/2015-12-31.n3; 4,855; 12; 1
ontologies/2015-04-21/2015-04-21.n3; 13,701; 80; 0
ontologies/2017-03-08/2017-03-08.n3; 17,609; 32; 0
ontologies/2005-05-11/2005-05-11.n3; 101; 19; 0
ontologies/2014-10-08/2014-10-08.n3; 153; 20; 0
ontologies/2012-12-18/2012-12-18.n3; 2,892; 22; 1
ontologies/2007-01-19/2007-01-19.n3; 225; 9; 1
ontologies/2009-11-16/2009-11-16.n3; 2,032; 25; 0
ontologies/2015-02-15/2015-02-15.n3; 655; 19; 1
ontologies/2013-11-25/2013-11-25.n3; 789; 24; 0
ontologies/2018-02-22/2018-02-22.n3; 227; 19; 0
ontologies/2012-08-24/2012-08-24.n3; 102; 18; 0
ontologies/2014-01-23/2014-01-23.n3; 85; 19; 0
ontologies/2015-06-17/2015-06-17.n3; 123; 21; 0
ontologies/2016-08-12/2016-08-12.n3; 647; 23; 0
ontologies/2011-09-02/2011-09-02.n3; 81; 19; 0
ontologies/2016-07-01/2016-07-01.n3; 70; 19; 0
ontologies/2011-08-11/2011-08-11.n3; 135; 20; 0
ontologies/2005-05-03/2005-05-03.n3; 402; 21; 0
ontologies/2014-11-21/2014-11-21.n3; 442; 20; 0
ontologies/2011-08-16/2011-08-16.n3; 203; 19; 0
ontologies/2013-03-21/2013-03-21.n3; 165; 10; 1
ontologies/2014-06-15/2014-06-15.n3; 11,770; 27; 1
ontologies/2011-07-05/2011-07-05.n3; 159; 8; 1
ontologies/2019-10-21/2019-10-21.n3; 228; 20; 0
ontologies/2010-01-01/2010-01-01.n3; 591; 21; 0
ontologies/2017-08-08/2017-08-08.n3; 257; 16; 0
ontologies/2021-02-26/2021-02-26.n3; 125; 20; 0
ontologies/2015-02-04/2015-02-04.n3; 8,398; 13; 1
ontologies/2014-09-12/2014-09-12.n3; 62; 19; 0
ontologies/2014-02-07/2014-02-07.n3; 425; 20; 0
ontologies/2013-03-27/2013-03-27.n3; 207; 19; 0
ontologies/2015-02-19/2015-02-19.n3; 228; 19; 0
ontologies/2015-03-27/2015-03-27.n3; 194; 21; 0
ontologies/2016-11-15/2016-11-15.n3; 289; 20; 0
ontologies/2010-09-15/2010-09-15.n3; 1,710; 22; 1
ontologies/2015-12-30/2015-12-30.n3; 8,525; 13; 1
ontologies/2012-03-02/2012-03-02.n3; 21; 19; 0
ontologies/2013-11-21/2013-11-21.n3; 184; 20; 0
ontologies/2017-08-14/2017-08-14.n3; 8,427; 13; 1
ontologies/2014-04-16/2014-04-16.n3; 7,416; 13; 1
ontologies/2013-05-27/2013-05-27.n3; 97; 18; 0
ontologies/2013-11-14/2013-11-14.n3; 257; 21; 0
ontologies/2014-01-01/2014-01-01.n3; 243; 20; 0
ontologies/2016-01-28/2016-01-28.n3; 163; 20; 0
ontologies/2010-06-07/2010-06-07.n3; 68; 16; 0
ontologies/2018-12-17/2018-12-17.n3; 224; 20; 0
ontologies/2016-02-28/2016-02-28.n3; 183; 19; 0
ontologies/2014-05-21/2014-05-21.n3; 285; 20; 0
ontologies/2014-01-25/2014-01-25.n3; 589; 21; 0
ontologies/2019-03-29/2019-03-29.n3; 729; 7; 1
ontologies/2013-07-05/2013-07-05.n3; 527; 21; 0
ontologies/2012-08-29/2012-08-29.n3; 377; 8; 1
ontologies/2013-05-02/2013-05-02.n3; 1,226; 24; 0
ontologies/2016-09-27/2016-09-27.n3; 14,580; 87; 0
ontologies/2005-06-03/2005-06-03.n3; 538; 20; 0
ontologies/2013-12-19/2013-12-19.n3; 481; 21; 0
ontologies/2012-06-26/2012-06-26.n3; 4,147; 13; 1
ontologies/2001-04-23/2001-04-23.n3; 72; 10; 1
ontologies/2012-07-27/2012-07-27.n3; 2,304; 28; 0
ontologies/2007-11-02/2007-11-02.n3; 1,737; 23; 0
ontologies/2013-02-07/2013-02-07.n3; 69; 18; 0
ontologies/2015-09-17/2015-09-17.n3; 82; 19; 0
ontologies/2011-08-05/2011-08-05.n3; 84; 18; 0
ontologies/2012-06-14/2012-06-14.n3; 866; 11; 1
ontologies/2013-05-08/2013-05-08.n3; 70; 25; 0
ontologies/2013-04-24/2013-04-24.n3; 257; 19; 0
ontologies/2016-02-04/2016-02-04.n3; 953; 23; 0
ontologies/2010-09-09/2010-09-09.n3; 560; 20; 0
ontologies/2015-03-29/2015-03-29.n3; 328; 21; 0
ontologies/2016-05-18/2016-05-18.n3; 151; 19; 0
ontologies/2015-03-10/2015-03-10.n3; 102; 20; 0
ontologies/2014-07-09/2014-07-09.n3; 11,990; 27; 1
ontologies/2019-08-01/2019-08-01.n3; 8,824; 14; 1
ontologies/2014-03-03/2014-03-03.n3; 1,626; 7; 1
ontologies/2012-10-06/2012-10-06.n3; 469; 21; 0
ontologies/2019-06-17/2019-06-17.n3; 1,749; 26; 0
ontologies/2017-05-15/2017-05-15.n3; 358; 21; 0
ontologies/2012-07-04/2012-07-04.n3; 34; 18; 0
ontologies/2019-01-16/2019-01-16.n3; 2,974; 32; 0
ontologies/2021-07-26/2021-07-26.n3; 524; 20; 0
ontologies/2017-04-01/2017-04-01.n3; 90; 19; 0
ontologies/2020-05-29/2020-05-29.n3; 913; 23; 0
ontologies/2012-06-05/2012-06-05.n3; 114; 19; 0
ontologies/2017-02-09/2017-02-09.n3; 2,470; 35; 0
ontologies/2014-01-28/2014-01-28.n3; 2,813; 38; 0
ontologies/2011-02-22/2011-02-22.n3; 274; 19; 0
ontologies/2014-05-16/2014-05-16.n3; 7,455; 14; 1
ontologies/2011-05-05/2011-05-05.n3; 271; 20; 0
ontologies/2007-10-29/2007-10-29.n3; 651; 22; 0
ontologies/2013-12-14/2013-12-14.n3; 142; 20; 0
ontologies/2012-06-10/2012-06-10.n3; 666; 10; 1
ontologies/2014-06-12/2014-06-12.n3; 135; 10; 1
ontologies/2012-05-02/2012-05-02.n3; 227; 19; 0
ontologies/2014-01-14/2014-01-14.n3; 631; 22; 0
ontologies/2012-01-26/2012-01-26.n3; 280; 21; 0
ontologies/2015-10-07/2015-10-07.n3; 842; 21; 0
ontologies/2012-03-26/2012-03-26.n3; 100; 11; 1
ontologies/2012-07-18/2012-07-18.n3; 337; 8; 1
ontologies/2012-02-13/2012-02-13.n3; 482; 21; 0
ontologies/2014-07-04/2014-07-04.n3; 1,862; 25; 0
ontologies/2015-09-07/2015-09-07.n3; 147; 20; 0
ontologies/2012-05-25/2012-05-25.n3; 1,564; 27; 0
ontologies/2015-05-04/2015-05-04.n3; 495; 20; 0
ontologies/2019-12-16/2019-12-16.n3; 127; 19; 0
ontologies/2014-09-04/2014-09-04.n3; 483; 22; 0
ontologies/2014-05-25/2014-05-25.n3; 453; 21; 0
ontologies/2013-04-17/2013-04-17.n3; 114; 19; 0
ontologies/2016-10-20/2016-10-20.n3; 464; 21; 0
ontologies/2005-12-21/2005-12-21.n3; 95; 20; 0
ontologies/2013-05-07/2013-05-07.n3; 220; 18; 0
ontologies/2013-09-17/2013-09-17.n3; 113; 19; 0
ontologies/2004-03-05/2004-03-05.n3; 101; 16; 0
ontologies/2017-11-30/2017-11-30.n3; 119; 20; 0
ontologies/2020-04-01/2020-04-01.n3; 2,067; 25; 0
ontologies/2012-05-04/2012-05-04.n3; 2,031; 25; 0
ontologies/2014-06-07/2014-06-07.n3; 1,664; 23; 0
ontologies/2014-09-03/2014-09-03.n3; 104; 18; 0
ontologies/2008-02-24/2008-02-24.n3; 101; 19; 0
ontologies/2010-10-13/2010-10-13.n3; 859; 22; 0
ontologies/2012-04-04/2012-04-04.n3; 153; 19; 0
ontologies/2014-10-31/2014-10-31.n3; 10,201; 8; 1
ontologies/2021-02-23/2021-02-23.n3; 547; 21; 0
ontologies/2019-07-01/2019-07-01.n3; 8,824; 14; 1
ontologies/2011-11-25/2011-11-25.n3; 2,468; 11; 1
ontologies/2013-09-19/2013-09-19.n3; 1,047; 24; 0
ontologies/2014-11-05/2014-11-05.n3; 163; 22; 0
ontologies/2010-01-20/2010-01-20.n3; 434; 20; 0
ontologies/2013-03-17/2013-03-17.n3; 2,969; 8; 1
ontologies/2016-01-16/2016-01-16.n3; 71; 19; 0
ontologies/2012-10-10/2012-10-10.n3; 484; 20; 0
ontologies/2005-08-10/2005-08-10.n3; 452; 22; 0
ontologies/2014-08-12/2014-08-12.n3; 1,226; 24; 0
ontologies/2014-06-20/2014-06-20.n3; 307; 18; 0
ontologies/2009-05-11/2009-05-11.n3; 863; 21; 0
ontologies/2014-10-01/2014-10-01.n3; 1,815; 7; 1
ontologies/2018-05-27/2018-05-27.n3; 7,767; 28; 0
ontologies/2009-06-16/2009-06-16.n3; 37; 9; 1
ontologies/2010-07-10/2010-07-10.n3; 374; 21; 0
ontologies/2010-07-01/2010-07-01.n3; 7; 8; 1
ontologies/2012-07-10/2012-07-10.n3; 1,549; 28; 0
ontologies/2018-11-25/2018-11-25.n3; 750; 23; 0
ontologies/2016-08-26/2016-08-26.n3; 152; 12; 1
ontologies/2013-06-02/2013-06-02.n3; 1,515; 27; 0
ontologies/2017-04-10/2017-04-10.n3; 1,912; 25; 0
ontologies/2012-07-19/2012-07-19.n3; 530; 14; 1
ontologies/2008-09-03/2008-09-03.n3; 133; 20; 0
ontologies/2010-02-09/2010-02-09.n3; 305; 21; 0
ontologies/2013-02-22/2013-02-22.n3; 113; 19; 0
ontologies/2018-01-18/2018-01-18.n3; 1,417; 22; 0
ontologies/2014-05-26/2014-05-26.n3; 1,067; 13; 1
ontologies/2013-03-03/2013-03-03.n3; 452; 21; 0
ontologies/2004-03-01/2004-03-01.n3; 39; 10; 1
ontologies/2013-05-28/2013-05-28.n3; 1,721; 24; 0
ontologies/2016-10-17/2016-10-17.n3; 359; 20; 0
ontologies/2012-11-22/2012-11-22.n3; 122; 20; 0
ontologies/2010-05-10/2010-05-10.n3; 2,824; 21; 0
ontologies/2006-09-27/2006-09-27.n3; 513; 10; 1
ontologies/2013-11-29/2013-11-29.n3; 85; 7; 1
ontologies/2010-07-12/2010-07-12.n3; 116; 19; 0
ontologies/2012-07-06/2012-07-06.n3; 566; 10; 1
ontologies/2011-03-13/2011-03-13.n3; 114; 20; 0
ontologies/2016-07-14/2016-07-14.n3; 3,187; 22; 0
ontologies/2013-08-16/2013-08-16.n3; 207; 18; 0
ontologies/2007-04-02/2007-04-02.n3; 2,898; 21; 0
ontologies/2012-07-17/2012-07-17.n3; 74; 19; 0
ontologies/2014-03-13/2014-03-13.n3; 112; 18; 0
ontologies/2016-09-21/2016-09-21.n3; 83; 19; 0
ontologies/2013-05-22/2013-05-22.n3; 2,292; 33; 0
ontologies/2004-08-12/2004-08-12.n3; 129; 10; 1
ontologies/2011-06-30/2011-06-30.n3; 1,084; 22; 0
ontologies/2013-03-16/2013-03-16.n3; 358; 22; 0
ontologies/2016-02-26/2016-02-26.n3; 267; 20; 0
ontologies/2013-03-22/2013-03-22.n3; 149; 17; 0
ontologies/2013-04-25/2013-04-25.n3; 115; 17; 1
ontologies/2014-05-22/2014-05-22.n3; 500; 23; 0
ontologies/2010-01-27/2010-01-27.n3; 96; 19; 0
ontologies/2010-02-03/2010-02-03.n3; 2,027; 25; 0
ontologies/2009-02-15/2009-02-15.n3; 87; 20; 0
ontologies/2013-12-09/2013-12-09.n3; 410; 19; 0
ontologies/2013-04-12/2013-04-12.n3; 24; 18; 0
ontologies/2016-09-14/2016-09-14.n3; 956; 21; 0
ontologies/2020-07-23/2020-07-23.n3; 212; 20; 0
ontologies/2011-10-12/2011-10-12.n3; 1,277; 8; 1
ontologies/2013-09-01/2013-09-01.n3; 84; 19; 0
ontologies/2014-06-30/2014-06-30.n3; 150; 19; 0
ontologies/2009-04-08/2009-04-08.n3; 104; 19; 0
ontologies/2001-02-22/2001-02-22.n3; 138; 10; 1
ontologies/2016-01-29/2016-01-29.n3; 464; 21; 0
ontologies/2019-02-19/2019-02-19.n3; 2,143; 32; 0
ontologies/2019-09-06/2019-09-06.n3; 225; 20; 0
ontologies/2006-06-26/2006-06-26.n3; 392; 21; 0
ontologies/2018-01-12/2018-01-12.n3; 98; 20; 0
ontologies/2015-11-30/2015-11-30.n3; 409; 21; 0
ontologies/2009-11-04/2009-11-04.n3; 1,215; 24; 0
ontologies/2013-01-28/2013-01-28.n3; 112; 20; 0
ontologies/2012-12-20/2012-12-20.n3; 1,934; 31; 0
ontologies/2012-01-23/2012-01-23.n3; 403; 21; 0
ontologies/2009-07-07/2009-07-07.n3; 51; 18; 0
ontologies/2013-03-01/2013-03-01.n3; 412; 8; 1
ontologies/2014-01-24/2014-01-24.n3; 107; 19; 0
ontologies/2018-03-28/2018-03-28.n3; 115; 19; 0
ontologies/2011-01-30/2011-01-30.n3; 60; 19; 0
ontologies/2011-11-16/2011-11-16.n3; 163; 19; 0
ontologies/2011-04-29/2011-04-29.n3; 230; 20; 0
ontologies/2014-02-17/2014-02-17.n3; 183; 11; 1
ontologies/2011-07-09/2011-07-09.n3; 120; 20; 0
ontologies/2012-09-30/2012-09-30.n3; 467; 21; 0
ontologies/2013-04-18/2013-04-18.n3; 390; 21; 0
ontologies/2004-03-28/2004-03-28.n3; 67; 16; 0
ontologies/2006-12-31/2006-12-31.n3; 114; 19; 0
ontologies/2011-12-15/2011-12-15.n3; 282; 20; 0
ontologies/2013-10-16/2013-10-16.n3; 64; 18; 0
ontologies/2012-07-05/2012-07-05.n3; 1,580; 29; 0
ontologies/2013-01-24/2013-01-24.n3; 23; 19; 0
ontologies/2013-03-12/2013-03-12.n3; 24; 17; 0
ontologies/2013-02-24/2013-02-24.n3; 1,405; 11; 1
ontologies/2014-06-19/2014-06-19.n3; 267; 19; 0
ontologies/2010-10-01/2010-10-01.n3; 162; 20; 0
ontologies/2011-02-24/2011-02-24.n3; 72; 19; 0
ontologies/2010-02-05/2010-02-05.n3; 530; 22; 0
ontologies/2014-08-18/2014-08-18.n3; 952; 20; 0
ontologies/2013-10-02/2013-10-02.n3; 374; 20; 0
ontologies/2012-06-06/2012-06-06.n3; 162; 20; 0
ontologies/2013-11-07/2013-11-07.n3; 64; 16; 0
ontologies/2009-06-05/2009-06-05.n3; 464; 22; 0
ontologies/2013-02-16/2013-02-16.n3; 231; 10; 1
ontologies/2014-06-06/2014-06-06.n3; 239; 20; 0
ontologies/2014-09-11/2014-09-11.n3; 152; 20; 0
ontologies/2012-10-02/2012-10-02.n3; 73; 19; 0
ontologies/2010-09-13/2010-09-13.n3; 134; 19; 0
ontologies/2013-04-28/2013-04-28.n3; 344; 21; 0
ontologies/2015-03-25/2015-03-25.n3; 104; 19; 0
ontologies/2003-02-10/2003-02-10.n3; 295; 20; 0
ontologies/2008-01-01/2008-01-01.n3; 127; 20; 0
ontologies/2019-08-06/2019-08-06.n3; 63,222; 218; 0
ontologies/2011-10-13/2011-10-13.n3; 518; 10; 1
ontologies/2011-09-15/2011-09-15.n3; 77; 19; 0
ontologies/2013-03-02/2013-03-02.n3; 265; 21; 0
ontologies/2011-06-14/2011-06-14.n3; 968; 22; 0
ontologies/2017-09-12/2017-09-12.n3; 4,427; 33; 0
ontologies/2011-03-28/2011-03-28.n3; 463; 21; 0
ontologies/2020-01-15/2020-01-15.n3; 8,861; 13; 1
ontologies/2010-08-09/2010-08-09.n3; 630; 20; 0
ontologies/2020-07-31/2020-07-31.n3; 940; 20; 0
ontologies/2003-10-15/2003-10-15.n3; 34; 11; 1
ontologies/2013-08-20/2013-08-20.n3; 91; 10; 1
ontologies/2016-11-12/2016-11-12.n3; 334; 19; 0
ontologies/2016-05-04/2016-05-04.n3; 7,893; 14; 1
ontologies/2010-03-25/2010-03-25.n3; 615; 21; 0
ontologies/2015-09-10/2015-09-10.n3; 53; 20; 0
ontologies/2018-10-06/2018-10-06.n3; 395; 20; 0
ontologies/2012-10-04/2012-10-04.n3; 300; 10; 1
ontologies/2015-03-23/2015-03-23.n3; 65; 20; 0
ontologies/2013-11-24/2013-11-24.n3; 86; 20; 0
ontologies/2014-03-11/2014-03-11.n3; 85; 19; 0
ontologies/2013-05-20/2013-05-20.n3; 441; 21; 0
ontologies/2010-09-16/2010-09-16.n3; 248; 20; 0
ontologies/2015-01-20/2015-01-20.n3; 141; 20; 0
ontologies/2016-01-12/2016-01-12.n3; 3,893; 33; 0
ontologies/2017-08-29/2017-08-29.n3; 106; 22; 0
ontologies/2013-02-18/2013-02-18.n3; 372; 19; 0
ontologies/2018-02-16/2018-02-16.n3; 576; 24; 0
ontologies/2018-06-11/2018-06-11.n3; 1,348; 27; 0
ontologies/2013-12-08/2013-12-08.n3; 812; 25; 0
ontologies/2012-03-21/2012-03-21.n3; 55; 19; 0
ontologies/2015-05-12/2015-05-12.n3; 9,023; 14; 1
ontologies/2007-10-30/2007-10-30.n3; 167; 22; 0
ontologies/2011-02-15/2011-02-15.n3; 152; 20; 0
ontologies/2013-06-01/2013-06-01.n3; 3,640; 12; 1
ontologies/2007-10-24/2007-10-24.n3; 217; 10; 1
ontologies/2014-04-12/2014-04-12.n3; 2,686; 24; 0
ontologies/2011-01-16/2011-01-16.n3; 268; 19; 0
ontologies/2012-05-03/2012-05-03.n3; 925; 23; 0
ontologies/2014-05-27/2014-05-27.n3; 7,472; 13; 1
ontologies/2013-09-26/2013-09-26.n3; 374; 20; 0
ontologies/2016-03-14/2016-03-14.n3; 235; 20; 0
ontologies/2015-12-17/2015-12-17.n3; 628; 19; 0
ontologies/2010-10-06/2010-10-06.n3; 122; 20; 0
ontologies/2012-06-30/2012-06-30.n3; 4,847; 36; 0
ontologies/2013-11-22/2013-11-22.n3; 53; 11; 1
ontologies/2016-08-31/2016-08-31.n3; 115; 19; 0
ontologies/2014-04-05/2014-04-05.n3; 195; 21; 0
ontologies/2012-08-31/2012-08-31.n3; 432; 20; 0
ontologies/2018-01-16/2018-01-16.n3; 4,458; 8; 1
ontologies/2009-04-24/2009-04-24.n3; 665; 21; 0
ontologies/2015-01-22/2015-01-22.n3; 2,002; 31; 0
ontologies/2010-03-29/2010-03-29.n3; 7; 8; 1
ontologies/2014-10-23/2014-10-23.n3; 1,358; 22; 0
ontologies/2010-03-18/2010-03-18.n3; 485; 22; 0
ontologies/2007-10-13/2007-10-13.n3; 156; 19; 0
ontologies/2016-05-12/2016-05-12.n3; 482; 21; 0
ontologies/2010-05-07/2010-05-07.n3; 806; 23; 0
ontologies/2013-12-18/2013-12-18.n3; 293; 20; 0
ontologies/2011-02-04/2011-02-04.n3; 375; 10; 1
ontologies/2016-10-30/2016-10-30.n3; 41; 19; 0
ontologies/2015-07-30/2015-07-30.n3; 551; 22; 0
ontologies/2009-05-31/2009-05-31.n3; 53; 19; 0
ontologies/2010-07-31/2010-07-31.n3; 4,967; 34; 0
ontologies/2016-01-26/2016-01-26.n3; 450; 24; 0
ontologies/2014-08-30/2014-08-30.n3; 357; 21; 0
ontologies/2009-08-24/2009-08-24.n3; 280; 20; 0
ontologies/2014-03-06/2014-03-06.n3; 1,815; 8; 1
ontologies/2016-07-24/2016-07-24.n3; 50; 18; 0
ontologies/2014-01-02/2014-01-02.n3; 588; 21; 0
ontologies/2020-01-10/2020-01-10.n3; 841; 21; 0
ontologies/2014-05-18/2014-05-18.n3; 14,162; 81; 0
ontologies/2018-08-02/2018-08-02.n3; 662; 21; 0
ontologies/2016-01-04/2016-01-04.n3; 235; 21; 0
ontologies/2010-06-17/2010-06-17.n3; 166; 18; 0
ontologies/2012-05-29/2012-05-29.n3; 7,942; 25; 0
ontologies/2012-09-16/2012-09-16.n3; 162; 21; 0
ontologies/2016-08-09/2016-08-09.n3; 8,103; 14; 1
ontologies/2019-02-12/2019-02-12.n3; 4,428; 34; 0
ontologies/2015-03-17/2015-03-17.n3; 275; 20; 0
ontologies/2018-08-31/2018-08-31.n3; 9,752; 32; 0
ontologies/2004-06-22/2004-06-22.n3; 74; 10; 1
ontologies/2011-10-03/2011-10-03.n3; 49; 19; 0
ontologies/2020-06-25/2020-06-25.n3; 882; 23; 0
ontologies/2012-12-31/2012-12-31.n3; 472; 22; 0
ontologies/2009-10-29/2009-10-29.n3; 162; 10; 1
ontologies/2011-12-12/2011-12-12.n3; 27; 17; 0
ontologies/2014-01-07/2014-01-07.n3; 80; 21; 0
ontologies/2015-09-24/2015-09-24.n3; 85; 20; 0
ontologies/2016-08-30/2016-08-30.n3; 55; 11; 1
ontologies/2011-02-28/2011-02-28.n3; 30; 18; 0
ontologies/2017-09-16/2017-09-16.n3; 2,160; 22; 0
ontologies/2012-01-11/2012-01-11.n3; 131; 20; 0
ontologies/2011-03-11/2011-03-11.n3; 128; 20; 0
ontologies/2013-07-03/2013-07-03.n3; 479; 18; 1
ontologies/2015-07-14/2015-07-14.n3; 2,832; 11; 1
ontologies/2013-06-06/2013-06-06.n3; 149; 20; 0
ontologies/2011-12-20/2011-12-20.n3; 3,454; 32; 0
ontologies/2015-07-03/2015-07-03.n3; 921; 25; 0
ontologies/2005-04-29/2005-04-29.n3; 142; 9; 1
ontologies/2009-08-20/2009-08-20.n3; 85; 19; 0
ontologies/2013-03-15/2013-03-15.n3; 264; 20; 0
ontologies/2014-06-10/2014-06-10.n3; 116; 19; 0
ontologies/2014-03-19/2014-03-19.n3; 16,148; 30; 1
ontologies/2014-07-25/2014-07-25.n3; 11,994; 27; 1
ontologies/2017-11-10/2017-11-10.n3; 610; 19; 0
ontologies/2012-11-01/2012-11-01.n3; 1,780; 24; 0
ontologies/2014-05-14/2014-05-14.n3; 919; 24; 0
ontologies/2016-10-09/2016-10-09.n3; 2,082; 24; 0
ontologies/2013-03-11/2013-03-11.n3; 68; 20; 0
ontologies/2009-08-21/2009-08-21.n3; 133; 19; 0
ontologies/2014-09-01/2014-09-01.n3; 133; 19; 0
ontologies/2013-04-27/2013-04-27.n3; 122; 19; 0
ontologies/2012-02-20/2012-02-20.n3; 125; 20; 0
ontologies/2013-09-16/2013-09-16.n3; 148; 18; 0
ontologies/2011-09-23/2011-09-23.n3; 19; 18; 0
ontologies/2011-10-17/2011-10-17.n3; 37; 19; 0
ontologies/2013-06-17/2013-06-17.n3; 71; 19; 0
ontologies/2019-02-26/2019-02-26.n3; 278; 19; 0
ontologies/2008-07-16/2008-07-16.n3; 118; 20; 0
ontologies/2012-04-09/2012-04-09.n3; 3,954; 12; 1
ontologies/2017-02-16/2017-02-16.n3; 986; 19; 1
ontologies/2013-06-24/2013-06-24.n3; 2,378; 31; 0
ontologies/2015-05-05/2015-05-05.n3; 694; 22; 0
ontologies/2012-07-26/2012-07-26.n3; 4,160; 11; 1
ontologies/2016-06-13/2016-06-13.n3; 21,434; 73; 0
ontologies/2009-08-12/2009-08-12.n3; 282; 10; 1
ontologies/2015-04-28/2015-04-28.n3; 151; 18; 1
ontologies/2011-02-01/2011-02-01.n3; 147; 11; 1
ontologies/2016-12-07/2016-12-07.n3; 494; 21; 0
ontologies/2018-01-15/2018-01-15.n3; 1,045; 25; 0
ontologies/2020-06-06/2020-06-06.n3; 27,917; 66; 0
ontologies/2017-04-06/2017-04-06.n3; 1,048; 23; 0
ontologies/2013-03-25/2013-03-25.n3; 1,107; 25; 0
ontologies/2013-12-03/2013-12-03.n3; 197; 19; 0
ontologies/2010-08-02/2010-08-02.n3; 103; 20; 0
ontologies/2017-10-09/2017-10-09.n3; 127; 19; 0
ontologies/2012-02-14/2012-02-14.n3; 2,802; 38; 0
ontologies/2012-03-20/2012-03-20.n3; 106; 19; 0
ontologies/2020-01-23/2020-01-23.n3; 56; 19; 0
ontologies/2014-02-22/2014-02-22.n3; 82; 19; 0
ontologies/2010-06-08/2010-06-08.n3; 4,814; 37; 0
ontologies/2012-03-14/2012-03-14.n3; 115; 19; 0
ontologies/2009-06-08/2009-06-08.n3; 55; 18; 0
ontologies/2014-08-02/2014-08-02.n3; 1,140; 24; 0
ontologies/2009-01-13/2009-01-13.n3; 86; 18; 0
ontologies/2012-11-06/2012-11-06.n3; 159; 20; 0
ontologies/2013-09-30/2013-09-30.n3; 517; 22; 0
ontologies/2014-01-20/2014-01-20.n3; 647; 21; 0
ontologies/2014-03-25/2014-03-25.n3; 1,996; 31; 0
ontologies/2011-10-01/2011-10-01.n3; 1,834; 24; 0
ontologies/2020-06-14/2020-06-14.n3; 116; 20; 0
ontologies/2012-12-26/2012-12-26.n3; 53; 19; 0
ontologies/2011-07-29/2011-07-29.n3; 5,638; 36; 0
ontologies/2013-03-07/2013-03-07.n3; 243; 20; 0
ontologies/2010-03-08/2010-03-08.n3; 1,092; 14; 1
ontologies/2011-05-10/2011-05-10.n3; 162; 10; 1
ontologies/2015-06-01/2015-06-01.n3; 142; 20; 0
ontologies/2004-02-20/2004-02-20.n3; 313; 23; 0
ontologies/2014-07-15/2014-07-15.n3; 50,001; 119; 0
ontologies/2009-04-22/2009-04-22.n3; 30; 11; 1
ontologies/2014-05-01/2014-05-01.n3; 83; 20; 0
ontologies/2011-11-29/2011-11-29.n3; 166; 19; 0
ontologies/2012-11-15/2012-11-15.n3; 1,827; 22; 0
ontologies/2013-02-25/2013-02-25.n3; 776; 25; 0
ontologies/2018-06-14/2018-06-14.n3; 8,454; 14; 1
ontologies/2009-06-11/2009-06-11.n3; 38; 19; 0
ontologies/2008-09-25/2008-09-25.n3; 130; 18; 0
ontologies/2015-07-29/2015-07-29.n3; 271; 21; 0
ontologies/2016-07-13/2016-07-13.n3; 986; 13; 1
ontologies/2013-06-03/2013-06-03.n3; 206; 20; 0
ontologies/2003-12-09/2003-12-09.n3; 1,839; 24; 0
ontologies/2017-03-23/2017-03-23.n3; 8,259; 13; 1
ontologies/2004-05-21/2004-05-21.n3; 59; 11; 1
ontologies/2009-08-25/2009-08-25.n3; 248; 20; 0
ontologies/2014-06-03/2014-06-03.n3; 3,741; 12; 1
ontologies/2016-02-18/2016-02-18.n3; 2,502; 21; 0
ontologies/2005-09-14/2005-09-14.n3; 165; 10; 1
ontologies/2012-09-10/2012-09-10.n3; 1,634; 29; 0
ontologies/2013-05-25/2013-05-25.n3; 571; 21; 0
ontologies/2010-02-04/2010-02-04.n3; 73; 19; 0
ontologies/2007-08-15/2007-08-15.n3; 187; 11; 1
ontologies/2015-02-09/2015-02-09.n3; 200; 19; 0
ontologies/2014-08-28/2014-08-28.n3; 1,759; 24; 0
ontologies/2012-03-30/2012-03-30.n3; 205; 21; 0
ontologies/2018-07-03/2018-07-03.n3; 1,636; 27; 0
ontologies/2011-05-29/2011-05-29.n3; 173; 20; 0
ontologies/2015-04-01/2015-04-01.n3; 1,286; 24; 0
ontologies/2016-12-09/2016-12-09.n3; 164; 20; 0
ontologies/2013-05-29/2013-05-29.n3; 332; 21; 0
ontologies/2013-08-30/2013-08-30.n3; 279; 20; 0
ontologies/2014-01-17/2014-01-17.n3; 622; 22; 0
ontologies/2013-03-23/2013-03-23.n3; 340; 8; 1
ontologies/2013-06-23/2013-06-23.n3; 336; 20; 0
ontologies/2014-05-15/2014-05-15.n3; 3,708; 34; 0
ontologies/2011-01-25/2011-01-25.n3; 384; 21; 0
ontologies/2011-06-20/2011-06-20.n3; 1,541; 24; 0
ontologies/2011-04-06/2011-04-06.n3; 8,721; 13; 1
ontologies/2020-02-04/2020-02-04.n3; 1,170; 21; 0
ontologies/2014-09-19/2014-09-19.n3; 643; 20; 0
ontologies/2019-04-30/2019-04-30.n3; 459; 22; 0
ontologies/2009-06-06/2009-06-06.n3; 95; 20; 0
ontologies/2010-07-24/2010-07-24.n3; 88; 19; 0
ontologies/2011-02-17/2011-02-17.n3; 313; 20; 0
ontologies/2013-09-04/2013-09-04.n3; 164; 20; 0
ontologies/2009-01-14/2009-01-14.n3; 102; 20; 0
ontologies/2012-10-15/2012-10-15.n3; 1,837; 26; 0
ontologies/2013-04-01/2013-04-01.n3; 193; 20; 0
ontologies/2015-04-07/2015-04-07.n3; 149; 21; 0
ontologies/2010-11-08/2010-11-08.n3; 117; 18; 0
ontologies/2012-03-12/2012-03-12.n3; 334; 18; 0
ontologies/2016-12-13/2016-12-13.n3; 1,096; 24; 0
ontologies/2003-12-29/2003-12-29.n3; 455; 21; 0
ontologies/2018-10-16/2018-10-16.n3; 4,474; 33; 0
ontologies/2018-10-12/2018-10-12.n3; 227; 19; 0
ontologies/2014-02-28/2014-02-28.n3; 83; 20; 0
ontologies/2017-06-05/2017-06-05.n3; 775; 22; 0
ontologies/2015-07-22/2015-07-22.n3; 151; 18; 0
ontologies/2007-10-25/2007-10-25.n3; 520; 20; 0
ontologies/2000-10-01/2000-10-01.n3; 86; 10; 1
ontologies/2014-06-16/2014-06-16.n3; 155; 19; 0
ontologies/2019-04-01/2019-04-01.n3; 8,809; 14; 1
ontologies/2015-11-18/2015-11-18.n3; 15; 17; 0
ontologies/2015-04-16/2015-04-16.n3; 459; 22; 0
ontologies/2019-03-06/2019-03-06.n3; 737; 23; 0
ontologies/2012-12-01/2012-12-01.n3; 103; 20; 0
ontologies/2011-06-11/2011-06-11.n3; 171; 18; 0
ontologies/2014-10-21/2014-10-21.n3; 127; 22; 0
ontologies/2012-06-20/2012-06-20.n3; 8,204; 9; 1
ontologies/2008-05-14/2008-05-14.n3; 172; 18; 0
ontologies/2014-07-12/2014-07-12.n3; 8,901; 49; 0
ontologies/2016-09-19/2016-09-19.n3; 33; 19; 0
ontologies/2013-05-10/2013-05-10.n3; 197; 19; 0
ontologies/2013-10-03/2013-10-03.n3; 133; 20; 0
ontologies/2006-07-29/2006-07-29.n3; 86; 12; 1
ontologies/2010-11-27/2010-11-27.n3; 566; 21; 0
ontologies/2015-07-28/2015-07-28.n3; 4,064; 45; 1
ontologies/2010-09-22/2010-09-22.n3; 2,886; 22; 0
ontologies/2010-07-20/2010-07-20.n3; 138; 20; 0
ontologies/2008-05-20/2008-05-20.n3; 295; 20; 0
ontologies/2017-01-25/2017-01-25.n3; 97; 19; 0
ontologies/2020-02-01/2020-02-01.n3; 667; 22; 0
ontologies/2015-05-22/2015-05-22.n3; 53; 19; 0
ontologies/2014-02-14/2014-02-14.n3; 70; 20; 0
ontologies/2006-10-05/2006-10-05.n3; 2,659; 20; 0
ontologies/2013-10-23/2013-10-23.n3; 72; 22; 0
ontologies/2005-04-01/2005-04-01.n3; 98; 18; 0
ontologies/2010-08-04/2010-08-04.n3; 154; 20; 0
ontologies/2000-12-06/2000-12-06.n3; 44; 11; 1
ontologies/2003-03-14/2003-03-14.n3; 49; 18; 0
ontologies/2012-07-09/2012-07-09.n3; 312; 8; 1
ontologies/2015-02-14/2015-02-14.n3; 17,084; 9; 1
ontologies/2019-01-30/2019-01-30.n3; 552; 22; 0
ontologies/2017-06-10/2017-06-10.n3; 4,692; 23; 0
ontologies/2014-08-03/2014-08-03.n3; 490; 20; 0
ontologies/2019-10-24/2019-10-24.n3; 284; 20; 0
ontologies/2011-02-16/2011-02-16.n3; 5,375; 40; 0
ontologies/2015-06-08/2015-06-08.n3; 60; 19; 0
ontologies/2016-03-01/2016-03-01.n3; 138; 20; 0
ontologies/2014-08-26/2014-08-26.n3; 97; 19; 0
ontologies/2007-10-31/2007-10-31.n3; 1,087; 24; 0
ontologies/2012-07-03/2012-07-03.n3; 483; 18; 0
ontologies/2012-04-26/2012-04-26.n3; 894; 24; 0
ontologies/2019-05-01/2019-05-01.n3; 8,809; 14; 1
ontologies/2017-12-10/2017-12-10.n3; 93; 19; 0
ontologies/2017-04-12/2017-04-12.n3; 44; 10; 1
ontologies/2016-03-30/2016-03-30.n3; 2,338; 26; 0
ontologies/2014-10-27/2014-10-27.n3; 544; 20; 0
ontologies/2012-09-28/2012-09-28.n3; 386; 7; 1
ontologies/2014-07-11/2014-07-11.n3; 219; 20; 0
ontologies/2009-06-02/2009-06-02.n3; 23; 16; 0
ontologies/2014-07-16/2014-07-16.n3; 214; 8; 1
ontologies/2013-10-09/2013-10-09.n3; 178; 19; 0
ontologies/2009-02-19/2009-02-19.n3; 254; 11; 1
ontologies/2014-08-07/2014-08-07.n3; 302; 21; 0
ontologies/2015-08-04/2015-08-04.n3; 3,473; 33; 0
ontologies/2018-02-25/2018-02-25.n3; 1,065; 14; 1
ontologies/2007-12-13/2007-12-13.n3; 54; 19; 0
ontologies/2014-02-01/2014-02-01.n3; 310; 21; 0
ontologies/2020-04-20/2020-04-20.n3; 2,641; 27; 0
ontologies/2017-07-20/2017-07-20.n3; 1,128; 21; 0
ontologies/2012-06-25/2012-06-25.n3; 283; 8; 1
ontologies/2013-02-26/2013-02-26.n3; 133; 8; 1
ontologies/2014-02-05/2014-02-05.n3; 6,796; 13; 1
ontologies/2008-11-16/2008-11-16.n3; 458; 21; 0
ontologies/2019-04-29/2019-04-29.n3; 198; 22; 0
ontologies/2013-05-16/2013-05-16.n3; 78; 20; 0
